<svg width="41" height="51" viewBox="0 0 41 51" fill="none" xmlns="http://www.w3.org/2000/svg">
<rect width="41" height="51" fill="white"/>
<path d="M25.6335 46.8337C28.3496 46.8795 31.1857 46.6679 33.542 45.0382C35.8983 43.4085 37.5915 39.9763 36.8049 36.8475C36.5258 35.7914 35.995 34.8187 35.2578 34.0127C34.5206 33.2067 33.599 32.5914 32.572 32.2195C30.6671 31.514 28.6283 31.6445 26.6494 31.8914C23.6616 32.2618 20.7057 32.9108 17.7532 33.5599L7.91162 35.7187C5.82338 36.1737 3.30126 37.1755 3.02259 39.6941C2.77919 41.9164 4.54644 43.6766 6.21845 44.6678C12.4373 48.3505 19.0019 46.7208 25.6335 46.8337Z" fill="#E5EFFF"/>
<path d="M24.5196 4.65264V2.53617C24.5205 2.39551 24.4658 2.26018 24.3673 2.15973C24.2689 2.05928 24.1347 2.00186 23.994 2H16.5652C16.428 2.00458 16.2979 2.06234 16.2024 2.16107C16.107 2.25981 16.0537 2.39179 16.0537 2.52912V4.64558C16.0545 4.78264 16.1081 4.91412 16.2034 5.01267C16.2987 5.11122 16.4283 5.16925 16.5652 5.1747H23.994C24.132 5.17202 24.2636 5.11627 24.3615 5.01903C24.4594 4.9218 24.516 4.79057 24.5196 4.65264ZM20.2867 12.6211C20.2867 12.6211 11.7891 12.1802 11.7891 23.4257V41.8036C11.7891 41.944 11.8448 42.0786 11.944 42.1778C12.0433 42.277 12.1778 42.3328 12.3182 42.3328H28.241C28.3814 42.3328 28.516 42.277 28.6152 42.1778C28.7144 42.0786 28.7702 41.944 28.7702 41.8036V23.4257C28.7702 12.0179 20.2867 12.6211 20.2867 12.6211Z" fill="#7169FF"/>
<path d="M23.4607 5.1748H17.1113V13.6759H23.4607V5.1748ZM21.3443 23.2282V35.9623H28.7695V23.2282H21.3443Z" fill="#3E3B55"/>
</svg>
